[gd_scene load_steps=3 format=2]

[ext_resource path="res://scenes/spaceShip.tscn" type="PackedScene" id=1]
[ext_resource path="res://scenes/ufoSpawner.tscn" type="PackedScene" id=2]

[node name="main" type="Node"]

[node name="spaceShip" parent="." index="0" instance=ExtResource( 1 )]

position = Vector2( 334, 439 )

[node name="ufoSpawner" parent="." index="1" instance=ExtResource( 2 )]


